test_benches/main_tb.vcd
$date
	Thu Jul 18 22:20:30 2024
$end
$version
	Icarus Verilog
$end
$timescale
	1ns
$end
$scope module main_tb $end
$var wire 1 ! unlocked $end
$var wire 4 " sp_reg_out8 [3:0] $end
$var wire 4 # sp_reg_out7 [3:0] $end
$var wire 4 $ sp_reg_out6 [3:0] $end
$var wire 4 % sp_reg_out5 [3:0] $end
$var wire 4 & sp_reg_out4 [3:0] $end
$var wire 4 ' sp_reg_out3 [3:0] $end
$var wire 4 ( sp_reg_out2 [3:0] $end
$var wire 4 ) sp_reg_out1 [3:0] $end
$var wire 7 * seg_out [6:0] $end
$var wire 4 + reg_out8 [3:0] $end
$var wire 4 , reg_out7 [3:0] $end
$var wire 4 - reg_out6 [3:0] $end
$var wire 4 . reg_out5 [3:0] $end
$var wire 4 / reg_out4 [3:0] $end
$var wire 4 0 reg_out3 [3:0] $end
$var wire 4 1 reg_out2 [3:0] $end
$var wire 4 2 reg_out1 [3:0] $end
$var wire 1 3 qbar7_ui $end
$var wire 1 4 qbar7_sp $end
$var wire 1 5 qbar6_ui $end
$var wire 1 6 qbar6_sp $end
$var wire 1 7 qbar5_ui $end
$var wire 1 8 qbar5_sp $end
$var wire 1 9 qbar4_ui $end
$var wire 1 : qbar4_sp $end
$var wire 1 ; qbar3_ui $end
$var wire 1 < qbar3_sp $end
$var wire 1 = qbar2_ui $end
$var wire 1 > qbar2_sp $end
$var wire 1 ? qbar1_ui $end
$var wire 1 @ qbar1_sp $end
$var wire 1 A q7_ui $end
$var wire 1 B q7_sp $end
$var wire 1 C q6_ui $end
$var wire 1 D q6_sp $end
$var wire 1 E q5_ui $end
$var wire 1 F q5_sp $end
$var wire 1 G q4_ui $end
$var wire 1 H q4_sp $end
$var wire 1 I q3_ui $end
$var wire 1 J q3_sp $end
$var wire 1 K q2_ui $end
$var wire 1 L q2_sp $end
$var wire 1 M q1_ui $end
$var wire 1 N q1_sp $end
$var wire 5 O out [4:0] $end
$var wire 2 P mode_out [1:0] $end
$var wire 1 Q comp_out $end
$var wire 4 R attempt_count [3:0] $end
$var wire 1 S alarm_not_on $end
$var wire 1 T alarm $end
$var reg 1 U rst_alarm $end
$var reg 1 V rst_attempts $end
$var reg 1 W rst_sp $end
$var reg 1 X rst_ui $end
$var reg 2 Y sel [1:0] $end
$var reg 1 Z t $end
$var reg 10 [ x [9:0] $end
$scope module attempts $end
$var wire 1 V reset $end
$var wire 1 3 clk $end
$var reg 4 \ count [3:0] $end
$upscope $end
$scope module comp_circ $end
$var wire 32 ] in_1 [31:0] $end
$var wire 32 ^ in_2 [31:0] $end
$var wire 1 Q eq $end
$upscope $end
$scope module display_circ $end
$var wire 5 _ bcd [4:0] $end
$var reg 7 ` seg [6:0] $end
$upscope $end
$scope module dmx $end
$var wire 1 a Press_in $end
$var wire 2 b select [1:0] $end
$var reg 2 c Mode_out [1:0] $end
$upscope $end
$scope module enc $end
$var wire 10 d D_in [9:0] $end
$var reg 5 e BCD_out [4:0] $end
$upscope $end
$scope module input_array_1 $end
$var wire 1 X clear $end
$var wire 4 f reg_in1 [3:0] $end
$var wire 4 g reg_in2 [3:0] $end
$var wire 4 h reg_in3 [3:0] $end
$var wire 4 i reg_in4 [3:0] $end
$var wire 4 j reg_in5 [3:0] $end
$var wire 4 k reg_in6 [3:0] $end
$var wire 4 l reg_in7 [3:0] $end
$var wire 4 m reg_in8 [3:0] $end
$var wire 2 n reg_mode [1:0] $end
$var wire 4 o reg_out8 [3:0] $end
$var wire 4 p reg_out7 [3:0] $end
$var wire 4 q reg_out6 [3:0] $end
$var wire 4 r reg_out5 [3:0] $end
$var wire 4 s reg_out4 [3:0] $end
$var wire 4 t reg_out3 [3:0] $end
$var wire 4 u reg_out2 [3:0] $end
$var wire 4 v reg_out1 [3:0] $end
$var wire 1 3 clk8 $end
$var wire 1 7 clk7 $end
$var wire 1 5 clk6 $end
$var wire 1 9 clk5 $end
$var wire 1 A clk4 $end
$var wire 1 E clk3 $end
$var wire 1 C clk2 $end
$var wire 1 G clk1 $end
$scope module reg1 $end
$var wire 4 w reg_in [3:0] $end
$var wire 2 x reg_mode [1:0] $end
$var wire 1 X reset $end
$var wire 1 G clock $end
$var reg 4 y reg_out [3:0] $end
$upscope $end
$scope module reg2 $end
$var wire 4 z reg_in [3:0] $end
$var wire 2 { reg_mode [1:0] $end
$var wire 1 X reset $end
$var wire 1 C clock $end
$var reg 4 | reg_out [3:0] $end
$upscope $end
$scope module reg3 $end
$var wire 4 } reg_in [3:0] $end
$var wire 2 ~ reg_mode [1:0] $end
$var wire 1 X reset $end
$var wire 1 E clock $end
$var reg 4 !" reg_out [3:0] $end
$upscope $end
$scope module reg4 $end
$var wire 4 "" reg_in [3:0] $end
$var wire 2 #" reg_mode [1:0] $end
$var wire 1 X reset $end
$var wire 1 A clock $end
$var reg 4 $" reg_out [3:0] $end
$upscope $end
$scope module reg5 $end
$var wire 4 %" reg_in [3:0] $end
$var wire 2 &" reg_mode [1:0] $end
$var wire 1 X reset $end
$var wire 1 9 clock $end
$var reg 4 '" reg_out [3:0] $end
$upscope $end
$scope module reg6 $end
$var wire 4 (" reg_in [3:0] $end
$var wire 2 )" reg_mode [1:0] $end
$var wire 1 X reset $end
$var wire 1 5 clock $end
$var reg 4 *" reg_out [3:0] $end
$upscope $end
$scope module reg7 $end
$var wire 4 +" reg_in [3:0] $end
$var wire 2 ," reg_mode [1:0] $end
$var wire 1 X reset $end
$var wire 1 7 clock $end
$var reg 4 -" reg_out [3:0] $end
$upscope $end
$scope module reg8 $end
$var wire 4 ." reg_in [3:0] $end
$var wire 2 /" reg_mode [1:0] $end
$var wire 1 X reset $end
$var wire 1 3 clock $end
$var reg 4 0" reg_out [3:0] $end
$upscope $end
$upscope $end
$scope module input_array_2 $end
$var wire 1 W clear $end
$var wire 4 1" reg_in1 [3:0] $end
$var wire 4 2" reg_in2 [3:0] $end
$var wire 4 3" reg_in3 [3:0] $end
$var wire 4 4" reg_in4 [3:0] $end
$var wire 4 5" reg_in5 [3:0] $end
$var wire 4 6" reg_in6 [3:0] $end
$var wire 4 7" reg_in7 [3:0] $end
$var wire 4 8" reg_in8 [3:0] $end
$var wire 2 9" reg_mode [1:0] $end
$var wire 4 :" reg_out8 [3:0] $end
$var wire 4 ;" reg_out7 [3:0] $end
$var wire 4 <" reg_out6 [3:0] $end
$var wire 4 =" reg_out5 [3:0] $end
$var wire 4 >" reg_out4 [3:0] $end
$var wire 4 ?" reg_out3 [3:0] $end
$var wire 4 @" reg_out2 [3:0] $end
$var wire 4 A" reg_out1 [3:0] $end
$var wire 1 4 clk8 $end
$var wire 1 8 clk7 $end
$var wire 1 6 clk6 $end
$var wire 1 : clk5 $end
$var wire 1 B clk4 $end
$var wire 1 F clk3 $end
$var wire 1 D clk2 $end
$var wire 1 H clk1 $end
$scope module reg1 $end
$var wire 4 B" reg_in [3:0] $end
$var wire 2 C" reg_mode [1:0] $end
$var wire 1 W reset $end
$var wire 1 H clock $end
$var reg 4 D" reg_out [3:0] $end
$upscope $end
$scope module reg2 $end
$var wire 4 E" reg_in [3:0] $end
$var wire 2 F" reg_mode [1:0] $end
$var wire 1 W reset $end
$var wire 1 D clock $end
$var reg 4 G" reg_out [3:0] $end
$upscope $end
$scope module reg3 $end
$var wire 4 H" reg_in [3:0] $end
$var wire 2 I" reg_mode [1:0] $end
$var wire 1 W reset $end
$var wire 1 F clock $end
$var reg 4 J" reg_out [3:0] $end
$upscope $end
$scope module reg4 $end
$var wire 4 K" reg_in [3:0] $end
$var wire 2 L" reg_mode [1:0] $end
$var wire 1 W reset $end
$var wire 1 B clock $end
$var reg 4 M" reg_out [3:0] $end
$upscope $end
$scope module reg5 $end
$var wire 4 N" reg_in [3:0] $end
$var wire 2 O" reg_mode [1:0] $end
$var wire 1 W reset $end
$var wire 1 : clock $end
$var reg 4 P" reg_out [3:0] $end
$upscope $end
$scope module reg6 $end
$var wire 4 Q" reg_in [3:0] $end
$var wire 2 R" reg_mode [1:0] $end
$var wire 1 W reset $end
$var wire 1 6 clock $end
$var reg 4 S" reg_out [3:0] $end
$upscope $end
$scope module reg7 $end
$var wire 4 T" reg_in [3:0] $end
$var wire 2 U" reg_mode [1:0] $end
$var wire 1 W reset $end
$var wire 1 8 clock $end
$var reg 4 V" reg_out [3:0] $end
$upscope $end
$scope module reg8 $end
$var wire 4 W" reg_in [3:0] $end
$var wire 2 X" reg_mode [1:0] $end
$var wire 1 W reset $end
$var wire 1 4 clock $end
$var reg 4 Y" reg_out [3:0] $end
$upscope $end
$upscope $end
$scope module input_t_ff_1 $end
$var wire 1 Z" clk $end
$var wire 1 M q1 $end
$var wire 1 K q2 $end
$var wire 1 I q3 $end
$var wire 1 ? qbar1 $end
$var wire 1 = qbar2 $end
$var wire 1 ; qbar3 $end
$var wire 1 X rst $end
$var wire 1 Z t $end
$var wire 1 [" t3_qbar $end
$var wire 1 \" t3_q $end
$var wire 1 ]" t2_qbar $end
$var wire 1 ^" t2_q $end
$var wire 1 _" t1_qbar $end
$var wire 1 `" t1_q $end
$var wire 1 3 qbar7 $end
$var wire 1 5 qbar6 $end
$var wire 1 7 qbar5 $end
$var wire 1 9 qbar4 $end
$var wire 1 A q7 $end
$var wire 1 C q6 $end
$var wire 1 E q5 $end
$var wire 1 G q4 $end
$scope module t1 $end
$var wire 1 Z" clk $end
$var wire 1 _" qbar $end
$var wire 1 X rst $end
$var wire 1 Z t $end
$var reg 1 `" q $end
$upscope $end
$scope module t2 $end
$var wire 1 `" clk $end
$var wire 1 ]" qbar $end
$var wire 1 X rst $end
$var wire 1 Z t $end
$var reg 1 ^" q $end
$upscope $end
$scope module t3 $end
$var wire 1 _" clk $end
$var wire 1 [" qbar $end
$var wire 1 X rst $end
$var wire 1 Z t $end
$var reg 1 \" q $end
$upscope $end
$scope module t4 $end
$var wire 1 ^" clk $end
$var wire 1 9 qbar $end
$var wire 1 X rst $end
$var wire 1 Z t $end
$var reg 1 G q $end
$upscope $end
$scope module t5 $end
$var wire 1 ]" clk $end
$var wire 1 7 qbar $end
$var wire 1 X rst $end
$var wire 1 Z t $end
$var reg 1 E q $end
$upscope $end
$scope module t6 $end
$var wire 1 \" clk $end
$var wire 1 5 qbar $end
$var wire 1 X rst $end
$var wire 1 Z t $end
$var reg 1 C q $end
$upscope $end
$scope module t7 $end
$var wire 1 [" clk $end
$var wire 1 3 qbar $end
$var wire 1 X rst $end
$var wire 1 Z t $end
$var reg 1 A q $end
$upscope $end
$upscope $end
$scope module input_t_ff_2 $end
$var wire 1 a" clk $end
$var wire 1 N q1 $end
$var wire 1 L q2 $end
$var wire 1 J q3 $end
$var wire 1 @ qbar1 $end
$var wire 1 > qbar2 $end
$var wire 1 < qbar3 $end
$var wire 1 W rst $end
$var wire 1 Z t $end
$var wire 1 b" t3_qbar $end
$var wire 1 c" t3_q $end
$var wire 1 d" t2_qbar $end
$var wire 1 e" t2_q $end
$var wire 1 f" t1_qbar $end
$var wire 1 g" t1_q $end
$var wire 1 4 qbar7 $end
$var wire 1 6 qbar6 $end
$var wire 1 8 qbar5 $end
$var wire 1 : qbar4 $end
$var wire 1 B q7 $end
$var wire 1 D q6 $end
$var wire 1 F q5 $end
$var wire 1 H q4 $end
$scope module t1 $end
$var wire 1 a" clk $end
$var wire 1 f" qbar $end
$var wire 1 W rst $end
$var wire 1 Z t $end
$var reg 1 g" q $end
$upscope $end
$scope module t2 $end
$var wire 1 g" clk $end
$var wire 1 d" qbar $end
$var wire 1 W rst $end
$var wire 1 Z t $end
$var reg 1 e" q $end
$upscope $end
$scope module t3 $end
$var wire 1 f" clk $end
$var wire 1 b" qbar $end
$var wire 1 W rst $end
$var wire 1 Z t $end
$var reg 1 c" q $end
$upscope $end
$scope module t4 $end
$var wire 1 e" clk $end
$var wire 1 : qbar $end
$var wire 1 W rst $end
$var wire 1 Z t $end
$var reg 1 H q $end
$upscope $end
$scope module t5 $end
$var wire 1 d" clk $end
$var wire 1 8 qbar $end
$var wire 1 W rst $end
$var wire 1 Z t $end
$var reg 1 F q $end
$upscope $end
$scope module t6 $end
$var wire 1 c" clk $end
$var wire 1 6 qbar $end
$var wire 1 W rst $end
$var wire 1 Z t $end
$var reg 1 D q $end
$upscope $end
$scope module t7 $end
$var wire 1 b" clk $end
$var wire 1 4 qbar $end
$var wire 1 W rst $end
$var wire 1 Z t $end
$var reg 1 B q $end
$upscope $end
$upscope $end
$scope module out_circ $end
$var wire 1 h" bit_0 $end
$var wire 1 i" bit_2 $end
$var wire 1 Q is_equal $end
$var wire 1 j" is_null $end
$var wire 1 U reset_alarm $end
$var wire 1 ! unlocked $end
$var wire 1 k" w1 $end
$var wire 1 l" w2 $end
$var wire 1 m" w3 $end
$var wire 1 S qbar $end
$var wire 1 T alarm $end
$scope module d1 $end
$var wire 1 l" clk $end
$var wire 1 l" d $end
$var wire 1 S qbar $end
$var wire 1 U rst $end
$var reg 1 T q $end
$upscope $end
$upscope $end
$upscope $end
$enddefinitions $end
$comment Show the parameter values. $end
$dumpall
$end
#0
$dumpvars
0m"
0l"
0k"
1j"
0i"
0h"
0g"
1f"
0e"
1d"
0c"
1b"
0a"
0`"
1_"
0^"
1]"
0\"
1["
0Z"
b0 Y"
b11 X"
b0 W"
b0 V"
b11 U"
b0 T"
b0 S"
b11 R"
b0 Q"
b0 P"
b11 O"
b0 N"
b0 M"
b11 L"
b0 K"
b0 J"
b11 I"
b0 H"
b0 G"
b11 F"
b0 E"
b0 D"
b11 C"
b0 B"
b0 A"
b0 @"
b0 ?"
b0 >"
b0 ="
b0 <"
b0 ;"
b0 :"
b11 9"
b0 8"
b0 7"
b0 6"
b0 5"
b0 4"
b0 3"
b0 2"
b0 1"
b0 0"
b11 /"
b0 ."
b0 -"
b11 ,"
b0 +"
b0 *"
b11 )"
b0 ("
b0 '"
b11 &"
b0 %"
b0 $"
b11 #"
b0 ""
b0 !"
b11 ~
b0 }
b0 |
b11 {
b0 z
b0 y
b11 x
b0 w
b0 v
b0 u
b0 t
b0 s
b0 r
b0 q
b0 p
b0 o
b11 n
b0 m
b0 l
b0 k
b0 j
b0 i
b0 h
b0 g
b0 f
b0 e
b0 d
b0 c
b11 b
0a
b0 `
b0 _
b0 ^
b0 ]
b0 \
b0 [
0Z
b11 Y
1X
1W
1V
1U
0T
1S
b0 R
1Q
b0 P
b0 O
0N
0M
0L
0K
0J
0I
0H
0G
0F
0E
0D
0C
0B
0A
1@
1?
1>
1=
1<
1;
1:
19
18
17
16
15
14
13
b0 2
b0 1
b0 0
b0 /
b0 .
b0 -
b0 ,
b0 +
b0 *
b0 )
b0 (
b0 '
b0 &
b0 %
b0 $
b0 #
b0 "
0!
$end
#1
1Z
0X
0W
0V
0U
#5
1k"
0Q
b100000000000000000000000000000 ^
b10 )
b10 A"
b10 D"
0:
1H
0>
0d"
1L
1e"
0@
0f"
1N
1g"
1a"
0!
b10 P
b10 c
1m"
b10 8"
b10 W"
b10 7"
b10 T"
b10 6"
b10 Q"
b10 5"
b10 N"
b10 4"
b10 K"
b10 3"
b10 H"
b10 2"
b10 E"
b10 1"
b10 B"
b10 m
b10 ."
b10 l
b10 +"
b10 k
b10 ("
b10 j
b10 %"
b10 i
b10 ""
b10 h
b10 }
b10 g
b10 z
b10 f
b10 w
1a
b1101101 *
b1101101 `
0j"
b10010 O
b10010 _
b10010 e
b1 Y
b1 b
b100 [
b100 d
#10
0a"
b0 P
b0 c
b0 8"
b0 W"
b0 7"
b0 T"
b0 6"
b0 Q"
b0 5"
b0 N"
b0 4"
b0 K"
b0 3"
b0 H"
b0 2"
b0 E"
b0 1"
b0 B"
b0 m
b0 ."
b0 l
b0 +"
b0 k
b0 ("
b0 j
b0 %"
b0 i
b0 ""
b0 h
b0 }
b0 g
b0 z
b0 f
b0 w
0a
b0 *
b0 `
b0 O
b0 _
b0 e
b0 [
b0 d
#15
b100001000000000000000000000000 ^
b1 (
b1 @"
b1 G"
06
1D
0<
0b"
1J
1c"
1@
1f"
0N
0g"
1a"
b10 P
b10 c
b1 8"
b1 W"
b1 7"
b1 T"
b1 6"
b1 Q"
b1 5"
b1 N"
b1 4"
b1 K"
b1 3"
b1 H"
b1 2"
b1 E"
b1 1"
b1 B"
b1 m
b1 ."
b1 l
b1 +"
b1 k
b1 ("
b1 j
b1 %"
b1 i
b1 ""
b1 h
b1 }
b1 g
b1 z
b1 f
b1 w
1a
b110000 *
b110000 `
b10001 O
b10001 _
b10001 e
b10 [
b10 d
#20
0a"
b0 P
b0 c
b0 8"
b0 W"
b0 7"
b0 T"
b0 6"
b0 Q"
b0 5"
b0 N"
b0 4"
b0 K"
b0 3"
b0 H"
b0 2"
b0 E"
b0 1"
b0 B"
b0 m
b0 ."
b0 l
b0 +"
b0 k
b0 ("
b0 j
b0 %"
b0 i
b0 ""
b0 h
b0 }
b0 g
b0 z
b0 f
b0 w
0a
b0 *
b0 `
b0 O
b0 _
b0 e
b0 [
b0 d
#25
b100001100100000000000000000000 ^
b1001 '
b1001 ?"
b1001 J"
08
1F
1>
1d"
0L
0e"
0@
0f"
1N
1g"
1a"
b10 P
b10 c
b1001 8"
b1001 W"
b1001 7"
b1001 T"
b1001 6"
b1001 Q"
b1001 5"
b1001 N"
b1001 4"
b1001 K"
b1001 3"
b1001 H"
b1001 2"
b1001 E"
b1001 1"
b1001 B"
b1001 m
b1001 ."
b1001 l
b1001 +"
b1001 k
b1001 ("
b1001 j
b1001 %"
b1001 i
b1001 ""
b1001 h
b1001 }
b1001 g
b1001 z
b1001 f
b1001 w
1a
b1111011 *
b1111011 `
b11001 O
b11001 _
b11001 e
b1000000000 [
b1000000000 d
#30
0a"
b0 P
b0 c
b0 8"
b0 W"
b0 7"
b0 T"
b0 6"
b0 Q"
b0 5"
b0 N"
b0 4"
b0 K"
b0 3"
b0 H"
b0 2"
b0 E"
b0 1"
b0 B"
b0 m
b0 ."
b0 l
b0 +"
b0 k
b0 ("
b0 j
b0 %"
b0 i
b0 ""
b0 h
b0 }
b0 g
b0 z
b0 f
b0 w
0a
b0 *
b0 `
b0 O
b0 _
b0 e
b0 [
b0 d
#35
b100001100100110000000000000000 ^
b11 &
b11 >"
b11 M"
04
1B
1<
1b"
0J
0c"
1@
1f"
0N
0g"
1a"
b10 P
b10 c
b11 8"
b11 W"
b11 7"
b11 T"
b11 6"
b11 Q"
b11 5"
b11 N"
b11 4"
b11 K"
b11 3"
b11 H"
b11 2"
b11 E"
b11 1"
b11 B"
b11 m
b11 ."
b11 l
b11 +"
b11 k
b11 ("
b11 j
b11 %"
b11 i
b11 ""
b11 h
b11 }
b11 g
b11 z
b11 f
b11 w
1a
b1111001 *
b1111001 `
b10011 O
b10011 _
b10011 e
b1000 [
b1000 d
#40
0a"
b0 P
b0 c
b0 8"
b0 W"
b0 7"
b0 T"
b0 6"
b0 Q"
b0 5"
b0 N"
b0 4"
b0 K"
b0 3"
b0 H"
b0 2"
b0 E"
b0 1"
b0 B"
b0 m
b0 ."
b0 l
b0 +"
b0 k
b0 ("
b0 j
b0 %"
b0 i
b0 ""
b0 h
b0 }
b0 g
b0 z
b0 f
b0 w
0a
b0 *
b0 `
b0 O
b0 _
b0 e
b0 [
b0 d
#45
b100001100100110101000000000000 ^
b101 %
b101 ="
b101 P"
1:
0H
0>
0d"
1L
1e"
0@
0f"
1N
1g"
1a"
b10 P
b10 c
b101 8"
b101 W"
b101 7"
b101 T"
b101 6"
b101 Q"
b101 5"
b101 N"
b101 4"
b101 K"
b101 3"
b101 H"
b101 2"
b101 E"
b101 1"
b101 B"
b101 m
b101 ."
b101 l
b101 +"
b101 k
b101 ("
b101 j
b101 %"
b101 i
b101 ""
b101 h
b101 }
b101 g
b101 z
b101 f
b101 w
1a
b1011011 *
b1011011 `
b10101 O
b10101 _
b10101 e
b100000 [
b100000 d
#50
0a"
b0 P
b0 c
b0 8"
b0 W"
b0 7"
b0 T"
b0 6"
b0 Q"
b0 5"
b0 N"
b0 4"
b0 K"
b0 3"
b0 H"
b0 2"
b0 E"
b0 1"
b0 B"
b0 m
b0 ."
b0 l
b0 +"
b0 k
b0 ("
b0 j
b0 %"
b0 i
b0 ""
b0 h
b0 }
b0 g
b0 z
b0 f
b0 w
0a
b0 *
b0 `
b0 O
b0 _
b0 e
b0 [
b0 d
#55
b100001100100110101010000000000 ^
b100 $
b100 <"
b100 S"
16
0D
0<
0b"
1J
1c"
1@
1f"
0N
0g"
1a"
b10 P
b10 c
b100 8"
b100 W"
b100 7"
b100 T"
b100 6"
b100 Q"
b100 5"
b100 N"
b100 4"
b100 K"
b100 3"
b100 H"
b100 2"
b100 E"
b100 1"
b100 B"
b100 m
b100 ."
b100 l
b100 +"
b100 k
b100 ("
b100 j
b100 %"
b100 i
b100 ""
b100 h
b100 }
b100 g
b100 z
b100 f
b100 w
1a
b110011 *
b110011 `
b10100 O
b10100 _
b10100 e
b10000 [
b10000 d
#60
0a"
b0 P
b0 c
b0 8"
b0 W"
b0 7"
b0 T"
b0 6"
b0 Q"
b0 5"
b0 N"
b0 4"
b0 K"
b0 3"
b0 H"
b0 2"
b0 E"
b0 1"
b0 B"
b0 m
b0 ."
b0 l
b0 +"
b0 k
b0 ("
b0 j
b0 %"
b0 i
b0 ""
b0 h
b0 }
b0 g
b0 z
b0 f
b0 w
0a
b0 *
b0 `
b0 O
b0 _
b0 e
b0 [
b0 d
#65
b100001100100110101010010000000 ^
b1000 #
b1000 ;"
b1000 V"
18
0F
1>
1d"
0L
0e"
0@
0f"
1N
1g"
1a"
b10 P
b10 c
b1000 8"
b1000 W"
b1000 7"
b1000 T"
b1000 6"
b1000 Q"
b1000 5"
b1000 N"
b1000 4"
b1000 K"
b1000 3"
b1000 H"
b1000 2"
b1000 E"
b1000 1"
b1000 B"
b1000 m
b1000 ."
b1000 l
b1000 +"
b1000 k
b1000 ("
b1000 j
b1000 %"
b1000 i
b1000 ""
b1000 h
b1000 }
b1000 g
b1000 z
b1000 f
b1000 w
1a
b1111111 *
b1111111 `
b11000 O
b11000 _
b11000 e
b100000000 [
b100000000 d
#70
0a"
b0 P
b0 c
b0 8"
b0 W"
b0 7"
b0 T"
b0 6"
b0 Q"
b0 5"
b0 N"
b0 4"
b0 K"
b0 3"
b0 H"
b0 2"
b0 E"
b0 1"
b0 B"
b0 m
b0 ."
b0 l
b0 +"
b0 k
b0 ("
b0 j
b0 %"
b0 i
b0 ""
b0 h
b0 }
b0 g
b0 z
b0 f
b0 w
0a
b0 *
b0 `
b0 O
b0 _
b0 e
b0 [
b0 d
#75
b100001100100110101010010001000 ^
b1000 "
b1000 :"
b1000 Y"
14
0B
1<
1b"
0J
0c"
1@
1f"
0N
0g"
1a"
b10 P
b10 c
b1000 8"
b1000 W"
b1000 7"
b1000 T"
b1000 6"
b1000 Q"
b1000 5"
b1000 N"
b1000 4"
b1000 K"
b1000 3"
b1000 H"
b1000 2"
b1000 E"
b1000 1"
b1000 B"
b1000 m
b1000 ."
b1000 l
b1000 +"
b1000 k
b1000 ("
b1000 j
b1000 %"
b1000 i
b1000 ""
b1000 h
b1000 }
b1000 g
b1000 z
b1000 f
b1000 w
1a
b1111111 *
b1111111 `
b11000 O
b11000 _
b11000 e
b100000000 [
b100000000 d
#80
0a"
b0 P
b0 c
b0 8"
b0 W"
b0 7"
b0 T"
b0 6"
b0 Q"
b0 5"
b0 N"
b0 4"
b0 K"
b0 3"
b0 H"
b0 2"
b0 E"
b0 1"
b0 B"
b0 m
b0 ."
b0 l
b0 +"
b0 k
b0 ("
b0 j
b0 %"
b0 i
b0 ""
b0 h
b0 }
b0 g
b0 z
b0 f
b0 w
0a
b0 *
b0 `
b0 O
b0 _
b0 e
b0 [
b0 d
#85
b100000000000000000000000000000 ]
b10 2
b10 v
b10 y
09
1G
0=
0]"
1K
1^"
0?
0_"
1M
1`"
1Z"
b1 P
b1 c
b10 8"
b10 W"
b10 7"
b10 T"
b10 6"
b10 Q"
b10 5"
b10 N"
b10 4"
b10 K"
b10 3"
b10 H"
b10 2"
b10 E"
b10 1"
b10 B"
b10 m
b10 ."
b10 l
b10 +"
b10 k
b10 ("
b10 j
b10 %"
b10 i
b10 ""
b10 h
b10 }
b10 g
b10 z
b10 f
b10 w
1a
b1101101 *
b1101101 `
b10010 O
b10010 _
b10010 e
b0 Y
b0 b
b100 [
b100 d
#90
0Z"
b0 P
b0 c
b0 8"
b0 W"
b0 7"
b0 T"
b0 6"
b0 Q"
b0 5"
b0 N"
b0 4"
b0 K"
b0 3"
b0 H"
b0 2"
b0 E"
b0 1"
b0 B"
b0 m
b0 ."
b0 l
b0 +"
b0 k
b0 ("
b0 j
b0 %"
b0 i
b0 ""
b0 h
b0 }
b0 g
b0 z
b0 f
b0 w
0a
b0 *
b0 `
b0 O
b0 _
b0 e
b0 [
b0 d
#95
b100001000000000000000000000000 ]
b1 1
b1 u
b1 |
05
1C
0;
0["
1I
1\"
1?
1_"
0M
0`"
1Z"
b1 P
b1 c
b1 8"
b1 W"
b1 7"
b1 T"
b1 6"
b1 Q"
b1 5"
b1 N"
b1 4"
b1 K"
b1 3"
b1 H"
b1 2"
b1 E"
b1 1"
b1 B"
b1 m
b1 ."
b1 l
b1 +"
b1 k
b1 ("
b1 j
b1 %"
b1 i
b1 ""
b1 h
b1 }
b1 g
b1 z
b1 f
b1 w
1a
b110000 *
b110000 `
b10001 O
b10001 _
b10001 e
b10 [
b10 d
#100
0Z"
b0 P
b0 c
b0 8"
b0 W"
b0 7"
b0 T"
b0 6"
b0 Q"
b0 5"
b0 N"
b0 4"
b0 K"
b0 3"
b0 H"
b0 2"
b0 E"
b0 1"
b0 B"
b0 m
b0 ."
b0 l
b0 +"
b0 k
b0 ("
b0 j
b0 %"
b0 i
b0 ""
b0 h
b0 }
b0 g
b0 z
b0 f
b0 w
0a
b0 *
b0 `
b0 O
b0 _
b0 e
b0 [
b0 d
#105
b100001100100000000000000000000 ]
b1001 0
b1001 t
b1001 !"
07
1E
1=
1]"
0K
0^"
0?
0_"
1M
1`"
1Z"
b1 P
b1 c
b1001 8"
b1001 W"
b1001 7"
b1001 T"
b1001 6"
b1001 Q"
b1001 5"
b1001 N"
b1001 4"
b1001 K"
b1001 3"
b1001 H"
b1001 2"
b1001 E"
b1001 1"
b1001 B"
b1001 m
b1001 ."
b1001 l
b1001 +"
b1001 k
b1001 ("
b1001 j
b1001 %"
b1001 i
b1001 ""
b1001 h
b1001 }
b1001 g
b1001 z
b1001 f
b1001 w
1a
b1111011 *
b1111011 `
b11001 O
b11001 _
b11001 e
b1000000000 [
b1000000000 d
#110
0Z"
b0 P
b0 c
b0 8"
b0 W"
b0 7"
b0 T"
b0 6"
b0 Q"
b0 5"
b0 N"
b0 4"
b0 K"
b0 3"
b0 H"
b0 2"
b0 E"
b0 1"
b0 B"
b0 m
b0 ."
b0 l
b0 +"
b0 k
b0 ("
b0 j
b0 %"
b0 i
b0 ""
b0 h
b0 }
b0 g
b0 z
b0 f
b0 w
0a
b0 *
b0 `
b0 O
b0 _
b0 e
b0 [
b0 d
#115
b100001100100110000000000000000 ]
b11 /
b11 s
b11 $"
03
1A
1;
1["
0I
0\"
1?
1_"
0M
0`"
1Z"
b1 P
b1 c
b11 8"
b11 W"
b11 7"
b11 T"
b11 6"
b11 Q"
b11 5"
b11 N"
b11 4"
b11 K"
b11 3"
b11 H"
b11 2"
b11 E"
b11 1"
b11 B"
b11 m
b11 ."
b11 l
b11 +"
b11 k
b11 ("
b11 j
b11 %"
b11 i
b11 ""
b11 h
b11 }
b11 g
b11 z
b11 f
b11 w
1a
b1111001 *
b1111001 `
b10011 O
b10011 _
b10011 e
b1000 [
b1000 d
#120
0Z"
b0 P
b0 c
b0 8"
b0 W"
b0 7"
b0 T"
b0 6"
b0 Q"
b0 5"
b0 N"
b0 4"
b0 K"
b0 3"
b0 H"
b0 2"
b0 E"
b0 1"
b0 B"
b0 m
b0 ."
b0 l
b0 +"
b0 k
b0 ("
b0 j
b0 %"
b0 i
b0 ""
b0 h
b0 }
b0 g
b0 z
b0 f
b0 w
0a
b0 *
b0 `
b0 O
b0 _
b0 e
b0 [
b0 d
#125
b100001100100110101000000000000 ]
b101 .
b101 r
b101 '"
19
0G
0=
0]"
1K
1^"
0?
0_"
1M
1`"
1Z"
b1 P
b1 c
b101 8"
b101 W"
b101 7"
b101 T"
b101 6"
b101 Q"
b101 5"
b101 N"
b101 4"
b101 K"
b101 3"
b101 H"
b101 2"
b101 E"
b101 1"
b101 B"
b101 m
b101 ."
b101 l
b101 +"
b101 k
b101 ("
b101 j
b101 %"
b101 i
b101 ""
b101 h
b101 }
b101 g
b101 z
b101 f
b101 w
1a
b1011011 *
b1011011 `
b10101 O
b10101 _
b10101 e
b100000 [
b100000 d
#130
0Z"
b0 P
b0 c
b0 8"
b0 W"
b0 7"
b0 T"
b0 6"
b0 Q"
b0 5"
b0 N"
b0 4"
b0 K"
b0 3"
b0 H"
b0 2"
b0 E"
b0 1"
b0 B"
b0 m
b0 ."
b0 l
b0 +"
b0 k
b0 ("
b0 j
b0 %"
b0 i
b0 ""
b0 h
b0 }
b0 g
b0 z
b0 f
b0 w
0a
b0 *
b0 `
b0 O
b0 _
b0 e
b0 [
b0 d
